Place,Name,State,WeightClassKg,BodyweightKg,BirthDate,Age,Squat1Kg,Squat2Kg,Squat3Kg,Best3SquatKg,Bench1Kg,Bench2Kg,Bench3Kg,Best3BenchKg,Deadlift1Kg,Deadlift2Kg,Deadlift3Kg,Best3DeadliftKg,TotalKg,Bench4Kg,Event,Equipment,Sex,Division
1,Heather Sczech,CO,56,55.4,,35,105,110,-115,110,62.5,65,67.5,67.5,127.5,137.5,145,145,322.5,,SBD,Raw,F,Open
2,My Nguyen-Nasson,UT,56,54,,29,100,-105,-105,100,-52.5,57.5,-62.5,57.5,110,117.5,125,125,282.5,,SBD,Raw,F,Open
1,Rianna Atkinson,UT,60,58.5,,24,87.5,95,-100,95,47.5,52.5,-55,52.5,110,120,127.5,127.5,275,,SBD,Raw,F,Open
1,Donna Weidow,MT,82.5,80.1,,46,112.5,122.5,127.5,127.5,67.5,75,77.5,77.5,125,137.5,142.5,142.5,347.5,,SBD,Raw,F,Open
2,Mandi Walker,UT,82.5,81.3,,33,105,117.5,-125,117.5,55,62.5,-67.5,62.5,110,115,120,120,300,,SBD,Raw,F,Open
3,Sabrina Bray,UT,82.5,77.6,,23,95,97.5,105,105,52.5,55,60,60,112.5,-115,120,120,285,,SBD,Raw,F,Open
1,Elise Van Tassell,UT,90+,117.5,,39,-110,115,137.5,137.5,77.5,85,-92.5,85,155,170,-180,170,392.5,,SBD,Raw,F,Open
1,Heather Sczech,CO,56,55.4,,35,105,110,-115,110,62.5,65,67.5,67.5,127.5,137.5,145,145,322.5,,SBD,Raw,F,Submasters 35-39
2,MJ Martinez,UT,56,55.2,,36,87.5,95,97.5,97.5,47.5,52.5,55,55,110,117.5,-125,117.5,270,,SBD,Raw,F,Submasters 35-39
1,Elise Van Tassell,UT,90+,117.5,,39,-110,115,137.5,137.5,77.5,85,-92.5,85,155,170,-180,170,392.5,,SBD,Raw,F,Submasters 35-39
1,Heidi Felshaw,UT,67.5,60.9,,40,92.5,100,107.5,107.5,70,77.5,-82.5,77.5,120,132.5,,132.5,317.5,,SBD,Raw,F,Masters 40-44
1,Donna Weidow,MT,82.5,80.1,,46,112.5,122.5,127.5,127.5,67.5,75,77.5,77.5,125,137.5,142.5,142.5,347.5,,SBD,Raw,F,Masters 45-49
DQ,Caleb Smith #1,UT,56,54.7,,14,-85,-85,-85,,47.5,50,50.5,50.5,95,100,102.5,102.5,,52.5,SBD,Raw,M,Juniors 13-15
1,Jj Marines,OR,90,85.2,,16,165,-172.5,-172.5,165,90,-100,100,100,205,227.5,-235,227.5,492.5,,SBD,Raw,M,Juniors 16-17
1,Tyler Decker,UT,90,89.2,,18,142.5,152.5,160,160,102.5,107.5,112.5,112.5,155,165,172.5,172.5,445,,SBD,Raw,M,Juniors 18-19
DQ,Caleb Smith #1,UT,56,54.7,,14,-85,-85,-85,,47.5,50,50.5,50.5,95,100,102.5,102.5,,52.5,SBD,Raw,M,Open
1,Corey Jones #1,UT,100,99,,28,170,177.5,-182.5,177.5,125,130,-137.5,130,190,202.5,-207.5,202.5,510,,SBD,Raw,M,Open
1,Conor Larson,UT,110,108.5,,35,195,207.5,217.5,217.5,185,195,-205,195,235,252.5,255,255,667.5,,SBD,Raw,M,Open
1,Conor Larson,UT,110,108.5,,35,195,207.5,217.5,217.5,185,195,-205,195,235,252.5,255,255,667.5,,SBD,Raw,M,Submasters 35-39
2,Chase Campbell,UT,110,101.1,,35,160,167.5,177.5,177.5,102.5,112.5,122.5,122.5,160,180,190,190,490,,SBD,Raw,M,Submasters 35-39
1,Leona Hildreth,CO,52,51.6,,45,102.5,115,120,120,52.5,57.5,-60,57.5,107.5,125,132.5,132.5,310,,SBD,Wraps,F,Open
1,Leona Hildreth,CO,52,51.6,,45,102.5,115,120,120,52.5,57.5,-60,57.5,107.5,125,132.5,132.5,310,,SBD,Wraps,F,Masters 45-49
1,Izach Juinio,UT,67.5,65.1,,18,182.5,-190,-190,182.5,85,90,-92.5,90,192.5,197.5,205,205,477.5,,SBD,Wraps,M,Juniors 18-19
1,Joey Burkman,UT,75,73.1,,19,-195,195,-200,195,117.5,122.5,125,125,197.5,210,-227.5,210,530,,SBD,Wraps,M,Juniors 18-19
1,Brandon Carlisle,UT,100,96.9,,34,-227.5,242.5,252.5,252.5,175,-185,-195,175,222.5,240,252.5,252.5,680,,SBD,Wraps,M,Open
1,Garrett Coleman,UT,125,125,,30,290,297.5,302.5,302.5,185,195,-197.5,195,282.5,287.5,-302.5,287.5,785,,SBD,Wraps,M,Open
2,Jake Snyder,UT,125,115,,33,275,287.5,302.5,302.5,167.5,177.5,185,185,275,287.5,-300,287.5,775,,SBD,Wraps,M,Open
1,Michael Carlisle,UT,100,98.9,,58,220,230,237.5,237.5,125,-137.5,-137.5,125,215,220,-227.5,220,582.5,,SBD,Wraps,M,Masters 55-59
1,Roger Smith,UT,110,108.3,,58,165,-185,190,190,132.5,145.5,,145.5,197.5,212.5,220,220,555.5,,SBD,Wraps,M,Masters 55-59
1,Martin Hollis,UT,110,104.7,,61,92.5,95,102.5,102.5,-45,60,,60,107.5,150,162.5,162.5,325,,SBD,Single-ply,M,Masters 60-64
1,Conor Larson,UT,110,108.5,,35,,,,,185,195,-205,195,,,,,195,,B,Raw,M,Open
1,Robert Rasmussen,UT,140+,167.3,,35,,,,,145,160,175,175,,,,,175,,B,Raw,M,Open
1,Conor Larson,UT,110,108.5,,35,,,,,185,195,-205,195,,,,,195,,B,Raw,M,Submasters 35-39
1,Robert Rasmussen,UT,140+,167.3,,35,,,,,145,160,175,175,,,,,175,,B,Raw,M,Submasters 35-39
1,Jon Cunningham,UT,82.5,81.1,,56,,,,,142.5,147.5,,147.5,,,,,147.5,,B,Raw,M,Masters 55-59
1,Caleb Smith #1,UT,56,54.7,,14,,,,,47.5,50,50.5,50.5,,,,,50.5,52.5,B,Raw,M,Juniors 13-15
1,Jon Cunningham,UT,82.5,81.1,,56,,,,,182.5,190,,190,,,,,190,,B,Single-ply,M,Masters 55-59
1,Dameon Van Tassell,UT,100,95.3,,15,,,,,,,,,135,145,152.5,152.5,152.5,,D,Raw,M,Juniors 13-15
1,Caleb Smith #1,UT,56,54.7,,14,,,,,,,,,95,100,102.5,102.5,102.5,,D,Raw,M,Juniors 13-15
1,Conor Larson,UT,110,108.5,,35,,,,,,,,,235,252.5,255,255,255,,D,Raw,M,Open
1,Douglas Van Tassell,UT,140+,180.4,,40,,,,,,,,,307.5,-340,340,340,340,,D,Raw,M,Open
2,Robert Rasmussen,UT,140+,167.3,,35,,,,,,,,,225,247.5,272.5,272.5,272.5,,D,Raw,M,Open
1,Conor Larson,UT,110,108.5,,35,,,,,,,,,235,252.5,255,255,255,,D,Raw,M,Submasters 35-39
1,Robert Rasmussen,UT,140+,167.3,,35,,,,,,,,,225,247.5,272.5,272.5,272.5,,D,Raw,M,Submasters 35-39
