Division,WeightClassKg,Place,Name,Team,BodyweightKg,Best3SquatKg,Best3BenchKg,Best3DeadliftKg,TotalKg,Equipment,Event,Sex
Boys,55.79,1,Richie Villa,Bloomington,51.89,90.72,79.38,95.25,265.35,Single-ply,SBD,M
Boys,51.71,2,Brandon Nguyen,Palacios,51.62,90.72,47.63,111.13,249.48,Single-ply,SBD,M
Boys,51.71,3,Josh Cantu,Bloomington,41.55,65.77,43.09,68.04,176.9,Single-ply,SBD,M
Boys,55.79,1,Vuong Nguyen,Palacios,54.98,113.4,56.7,136.08,306.17,Single-ply,SBD,M
Boys,59.87,1,David Fercado,Palacios,57.06,131.54,79.38,154.22,365.14,Single-ply,SBD,M
Boys,59.87,2,Jose Mancera,Palacios,57.42,99.79,72.57,129.27,301.64,Single-ply,SBD,M
Boys,59.87,3,Jonathan Nguyen,Palacios,56.43,104.33,61.23,113.4,278.96,Single-ply,SBD,M
Boys,59.87,4,Noah Seaman,Palacios,59.87,102.06,54.43,104.33,260.82,Single-ply,SBD,M
Boys,67.13,1,Bryan Pham,Palacios,65.32,188.24,92.99,206.38,487.61,Single-ply,SBD,M
Boys,67.13,2,Matthew Nguyen,Palacios,65.77,158.76,88.45,185.97,433.18,Single-ply,SBD,M
Boys,67.13,3,Chris Huffman,Palacios,66.5,142.88,72.57,174.63,390.09,Single-ply,SBD,M
Boys,67.13,4,Jose Jimenez #11,Palacios,60.33,124.74,81.65,154.22,360.61,Single-ply,SBD,M
Boys,67.13,5,Brian Nguyen,Palacios,62.51,92.99,58.97,124.74,276.69,Single-ply,SBD,M
Boys,67.13,6,Ruben Aguirre,Bloomington,62.05,92.99,58.97,122.47,274.42,Single-ply,SBD,M
Boys,67.13,7,Erik Guerrero,Bloomington,63.32,88.45,61.23,97.52,247.21,Single-ply,SBD,M
Boys,67.13,8,Jesus Hurtado,Palacios,61.51,70.31,54.43,102.06,226.8,Single-ply,SBD,M
Boys,67.13,9,Nathan Perkins,Palacios,62.96,,58.97,,58.97,Single-ply,B,M
Boys,74.84,1,Greg Sexton,Palacios,73.48,165.56,97.52,195.04,458.13,Single-ply,SBD,M
Boys,74.84,2,Kris Broussard,Palacios,68.67,129.27,79.38,156.49,365.14,Single-ply,SBD,M
Boys,74.84,3,Jose Guzman,Bloomington,73.03,,,170.1,170.1,Single-ply,D,M
Boys,82.1,1,Juan Lopez,Palacios,75.39,147.42,95.25,199.58,442.25,Single-ply,SBD,M
Boys,82.1,2,Samuel Flores,Bloomington,79.29,129.27,102.06,149.69,381.02,Single-ply,SBD,M
Boys,82.1,3,Miguel López,Palacios,80.1,124.74,79.38,174.63,378.75,Single-ply,SBD,M
Boys,82.1,4,Vincent Garcia,Palacios,75.93,140.61,72.57,142.88,356.07,Single-ply,SBD,M
Boys,82.1,5,Jonathan Gomez #4,Palacios,76.57,115.67,86.18,140.61,342.46,Single-ply,SBD,M
Boys,82.1,6,John Rodriguez,Palacios,79.11,111.13,83.91,142.88,337.93,Single-ply,SBD,M
Boys,89.81,1,Marcus Ferree,Palacios,88.45,210.92,147.42,222.26,580.6,Single-ply,SBD,M
Boys,89.81,2,Juan Mancera,Palacios,89.81,,74.84,,74.84,Single-ply,B,M
Boys,99.79,1,Michael Garcia #11,Palacios,99.16,181.44,115.67,192.78,489.88,Single-ply,SBD,M
Boys,109.77,1,Adam Aucoin,Palacios,103.33,244.94,142.88,208.65,596.47,Single-ply,SBD,M
Boys,109.77,2,Jonathan Turner,Bloomington,107.68,,,102.06,102.06,Single-ply,D,M
