Division,WeightClassKg,Place,Name,Team,BodyweightKg,Best3SquatKg,Best3BenchKg,Best3DeadliftKg,TotalKg,Equipment,Event,Sex
Girls,44.23,1,Ashley Martinez,Edinburg Idea College Prep,43.91,124.74,54.43,138.35,317.51,Single-ply,SBD,F
Girls,44.23,2,Lexus Gutierrez,Mathis,43.27,117.93,58.97,129.27,306.17,Single-ply,SBD,F
Girls,44.23,3,Samantha Sanchez #2,Natalia,43.82,120.2,56.7,122.47,299.37,Single-ply,SBD,F
Girls,44.23,4,Gabby Zarate,San Diego,43.64,111.13,52.16,122.47,285.76,Single-ply,SBD,F
Girls,44.23,5,Jaylin Haughie,Center Point,43.54,113.4,61.23,108.86,283.5,Single-ply,SBD,F
Girls,44.23,6,Adriana Villafuerte,Edinburg Idea College Prep,43.82,113.4,45.36,120.2,278.96,Single-ply,SBD,F
Girls,44.23,7,Amber Gallegos,San Diego,42.55,104.33,54.43,104.33,263.08,Single-ply,SBD,F
Girls,44.23,8,Catalyna Mata,San Antonio Brooks Academy,43.18,102.06,52.16,104.33,258.55,Single-ply,SBD,F
Girls,44.23,9,Julia Owens,Natalia,43.18,97.52,45.36,111.13,254.01,Single-ply,SBD,F
Girls,44.23,10,Jacqueline Pena,Edinburg Idea College Prep,43.73,106.59,40.82,106.59,254.01,Single-ply,SBD,F
Girls,44.23,11,Kristal Rodriguez,Dilley,43.54,83.91,54.43,113.4,251.74,Single-ply,SBD,F
Girls,44.23,12,Lesette Munoz,Mathis,43.64,97.52,52.16,102.06,251.74,Single-ply,SBD,F
Girls,44.23,13,Valery Cano,Edinburg Idea College Prep,42.37,102.06,36.29,111.13,249.48,Single-ply,SBD,F
Girls,44.23,14,Savannah Sandoval,Santa Gertrudis Academy,43.18,92.99,45.36,111.13,249.48,Single-ply,SBD,F
Girls,44.23,15,Jessica Garcia,Yorktown,44,97.52,47.63,104.33,249.48,Single-ply,SBD,F
Girls,44.23,16,Aliya Bustamante,Cotulla,41.55,88.45,40.82,104.33,233.6,Single-ply,SBD,F
Girls,44.23,17,Amber Fuentes,Odem,43,92.99,45.36,95.25,233.6,Single-ply,SBD,F
Girls,44.23,18,Calysta Reyes,Dilley,40.1,79.38,38.56,106.59,224.53,Single-ply,SBD,F
Girls,47.85,1,Alexia Dy,San Antonio Cole,46.54,124.74,49.9,138.35,312.98,Single-ply,SBD,F
Girls,47.85,2,Mariah Alaniz,Freer,47.08,131.54,56.7,124.74,312.98,Single-ply,SBD,F
Girls,47.85,3,Bryanna Perez #1,Natalia,47.45,129.27,63.5,117.93,310.71,Single-ply,SBD,F
Girls,47.85,4,Vanessa Vega,Skidmore-Tynan,46.99,129.27,61.23,111.13,301.64,Single-ply,SBD,F
Girls,47.85,5,Anastasia Rodriguez,Natalia,47.72,113.4,74.84,113.4,301.64,Single-ply,SBD,F
Girls,47.85,6,Reina de la Paz,Santa Gertrudis Academy,46.81,120.2,58.97,120.2,299.37,Single-ply,SBD,F
Girls,47.85,7,Megan Bailey,Karnes City,46.27,117.93,52.16,120.2,290.3,Single-ply,SBD,F
Girls,47.85,8,Nyelli Garza,Hebbronville,46.54,111.13,47.63,131.54,290.3,Single-ply,SBD,F
Girls,47.85,9,Alexis Longoria,Yorktown,47.54,127.01,47.63,108.86,283.5,Single-ply,SBD,F
Girls,47.85,10,Kaylee Garza,Cotulla,46.99,99.79,45.36,120.2,265.35,Single-ply,SBD,F
Girls,47.85,11,Bailey Luckman,Jourdanton,46.72,102.06,56.7,92.99,251.74,Single-ply,SBD,F
Girls,47.85,12,Savanna Sanchez,Benavides,46.27,95.25,43.09,106.59,244.94,Single-ply,SBD,F
Girls,51.94,1,Liszette Ortiz-Rosado,San Antonio Brooks Academy,50.26,147.42,102.06,142.88,392.36,Single-ply,SBD,F
Girls,51.94,2,Caitlin Berry #1,Bishop,51.35,131.54,83.91,138.35,353.8,Single-ply,SBD,F
Girls,51.94,3,Regan Boissiere,Universal City Randolph,51.94,106.59,61.23,133.81,301.64,Single-ply,SBD,F
Girls,51.94,4,Mireya Cantu,Hebbronville,50.53,131.54,61.23,102.06,294.84,Single-ply,SBD,F
Girls,51.94,5,Adriana Carlos,Center Point,50.17,117.93,52.16,117.93,288.03,Single-ply,SBD,F
Girls,51.94,6,Amber Trevino,Edinburg Quest College Prep,50.53,104.33,72.57,106.59,283.5,Single-ply,SBD,F
Girls,51.94,7,Edna Herschberger,Pettus,50.89,95.25,63.5,122.47,281.23,Single-ply,SBD,F
Girls,51.94,8,Dashae Atkinson,Hebbronville,50.26,117.93,56.7,104.33,278.96,Single-ply,SBD,F
Girls,51.94,9,Robin Naranjo,Yorktown,51.71,106.59,54.43,117.93,278.96,Single-ply,SBD,F
Girls,51.94,10,Raven Boissiere,Universal City Randolph,50.8,102.06,49.9,124.74,276.69,Single-ply,SBD,F
Girls,51.94,11,Heather Rios,Corpus Christi London,50.71,111.13,47.63,113.4,272.16,Single-ply,SBD,F
Girls,51.94,12,Daniela Aguilar,Hebbronville,51.35,108.86,54.43,102.06,265.35,Single-ply,SBD,F
Girls,56.02,1,Bailey Pastrano,San Diego,55.43,142.88,77.11,140.61,360.61,Single-ply,SBD,F
Girls,56.02,2,Cristy Gonzalez,Edinburg Idea College Prep,55.07,131.54,77.11,140.61,349.27,Single-ply,SBD,F
Girls,56.02,3,Phaidra Malcher,Poth,54.52,136.08,83.91,127.01,347,Single-ply,SBD,F
Girls,56.02,4,Carolina Flores,Hebbronville,54.43,131.54,68.04,142.88,342.46,Single-ply,SBD,F
Girls,56.02,5,Marissa Olvera,Center Point,55.34,136.08,77.11,129.27,342.46,Single-ply,SBD,F
Girls,56.02,6,Jazmin Estrada,San Antonio Brooks Academy,54.07,129.27,70.31,131.54,331.12,Single-ply,SBD,F
Girls,56.02,7,Masison Salinas,Hebbronville,55.52,138.35,58.97,133.81,331.12,Single-ply,SBD,F
Girls,56.02,8,Destinie' Small,San Antonio Cole,53.16,133.81,56.7,138.35,328.85,Single-ply,SBD,F
Girls,56.02,9,Yesenia Rocha,San Antonio Cole,53.8,122.47,61.23,145.15,328.85,Single-ply,SBD,F
Girls,56.02,10,Stephanie Benavides,Cotulla,54.88,133.81,56.7,138.35,328.85,Single-ply,SBD,F
Girls,56.02,11,Makayla Salaiz,San Diego,55.88,131.54,61.23,136.08,328.85,Single-ply,SBD,F
Girls,56.02,12,Amy Jo Wick,Weimar,54.16,129.27,61.23,131.54,322.05,Single-ply,SBD,F
Girls,56.02,13,Viviana Hernandez,Goliad,54.7,117.93,58.97,136.08,312.98,Single-ply,SBD,F
Girls,56.02,14,Serenity Alniz,Karnes City,53.89,129.27,47.63,117.93,294.84,Single-ply,SBD,F
Girls,56.02,DQ,Brinlee Freeman,Altair Rice,55.34,,,,,Single-ply,SBD,F
Girls,60.1,1,Alessandra Ruiz,Dilley,59.87,163.29,77.11,158.76,399.16,Single-ply,SBD,F
Girls,60.1,2,Julianna Morales,Natalia,58.33,147.42,86.18,145.15,378.75,Single-ply,SBD,F
Girls,60.1,3,Raina Rivera,Bishop,58.97,142.88,68.04,138.35,349.27,Single-ply,SBD,F
Girls,60.1,4,Emma Johnson,Poth,58.42,131.54,65.77,131.54,328.85,Single-ply,SBD,F
Girls,60.1,5,Pauline Inocencio,Cotulla,59.6,124.74,72.57,124.74,322.05,Single-ply,SBD,F
Girls,60.1,6,Brittany Kelley,Karnes City,58.6,138.35,52.16,122.47,312.98,Single-ply,SBD,F
Girls,60.1,7,McKenzie O'Neal,Corpus Christi London,58.33,131.54,61.23,115.67,308.44,Single-ply,SBD,F
Girls,60.1,8,Brenda Macklin,Center Point,58.97,127.01,49.9,115.67,292.57,Single-ply,SBD,F
Girls,60.1,9,Jessica Ayala #2,Stockdale,57.15,108.86,72.57,108.86,290.3,Single-ply,SBD,F
Girls,60.1,10,Kaylin Yanta,Poth,59.06,111.13,52.16,120.2,283.5,Single-ply,SBD,F
Girls,60.1,11,Aimsley Blank,Yorktown,58.33,88.45,45.36,92.99,226.8,Single-ply,SBD,F
Girls,60.1,DQ,Mea Villarreal,Mathis,59.06,113.4,63.5,,,Single-ply,SBD,F
Girls,60.1,DQ,Brooke Gisler,Karnes City,59.06,,,,,Single-ply,SBD,F
Girls,60.1,DQ,Jordan Moore #3,Hallettsville,59.51,,,,,Single-ply,SBD,F
Girls,67.36,1,Nallely Gutierrez,San Antonio Brooks Academy,67.13,176.9,124.74,183.7,485.34,Single-ply,SBD,F
Girls,67.36,2,Dezarea Perez,Natalia,66.59,142.88,72.57,161.03,376.48,Single-ply,SBD,F
Girls,67.36,3,Abby Esquivel #1,Mathis,64.77,147.42,77.11,147.42,371.95,Single-ply,SBD,F
Girls,67.36,4,Meranda Segura,Karnes City,62.14,149.69,72.57,140.61,362.87,Single-ply,SBD,F
Girls,67.36,5,Alexia Cadena,San Diego,64.05,147.42,65.77,149.69,362.87,Single-ply,SBD,F
Girls,67.36,6,Eliana Carrillo,San Diego,65.86,149.69,74.84,138.35,362.87,Single-ply,SBD,F
Girls,67.36,7,Katrina Hernandez,Cotulla,66.86,147.42,72.57,133.81,353.8,Single-ply,SBD,F
Girls,67.36,8,Kayci Molina,Runge,64.77,136.08,65.77,149.69,351.53,Single-ply,SBD,F
Girls,67.36,9,Briana Cruz,Mathis,64.86,147.42,72.57,129.27,349.27,Single-ply,SBD,F
Girls,67.36,10,Elidia Gonzales,Center Point,65.95,149.69,74.84,124.74,349.27,Single-ply,SBD,F
Girls,67.36,DQ,Jolynn Moreno,Hebbronville,64.77,,,,,Single-ply,SBD,F
Girls,67.36,DQ,Haley Sharp,Pettus,65.86,,,,,Single-ply,SBD,F
Girls,75.07,1,Catrina Soto,Skidmore-Tynan,75.07,185.97,92.99,181.44,460.4,Single-ply,SBD,F
Girls,75.07,2,T'Nia Sample,San Antonio Cole,68.13,181.44,81.65,181.44,444.52,Single-ply,SBD,F
Girls,75.07,3,Karina Avila,Hebbronville,74.48,197.31,83.91,163.29,444.52,Single-ply,SBD,F
Girls,75.07,4,Loren Chavez,San Antonio Brooks Academy,72.76,158.76,108.86,149.69,417.3,Single-ply,SBD,F
Girls,75.07,5,Rakel Aguero,Jourdanton,74.57,167.83,92.99,133.81,394.63,Single-ply,SBD,F
Girls,75.07,6,Mercedes Rodriguez,San Diego,70.94,158.76,70.31,158.76,387.82,Single-ply,SBD,F
Girls,75.07,7,Kinley Liska,Karnes City,72.94,149.69,90.72,140.61,381.02,Single-ply,SBD,F
Girls,75.07,8,Kendall Straube,Three Rivers,69.76,154.22,72.57,151.95,378.75,Single-ply,SBD,F
Girls,75.07,9,Allyson Rangel,Freer,73.66,154.22,68.04,151.95,374.21,Single-ply,SBD,F
Girls,75.07,10,Faith Rios,Mathis,72.67,165.56,65.77,131.54,362.87,Single-ply,SBD,F
Girls,75.07,11,Gabrielle Santoya,Natalia,74.12,147.42,74.84,136.08,358.34,Single-ply,SBD,F
Girls,75.07,12,Jozelle Rodriguez,Mathis,73.84,149.69,70.31,131.54,351.53,Single-ply,SBD,F
Girls,82.33,1,Alexis Gallegos,San Diego,80.01,206.38,120.2,172.37,498.95,Single-ply,SBD,F
Girls,82.33,2,Priscilla Garza,Edinburg Idea College Prep,81.28,179.17,86.18,147.42,412.77,Single-ply,SBD,F
Girls,82.33,3,Brittney Stafford,Hebbronville,81.01,165.56,95.25,147.42,408.23,Single-ply,SBD,F
Girls,82.33,4,Brianna Guillen,San Diego,79.29,172.37,74.84,154.22,401.43,Single-ply,SBD,F
Girls,82.33,5,Cassie Castro,Poth,79.47,172.37,61.23,151.95,385.55,Single-ply,SBD,F
Girls,82.33,6,Monica Villalobos,Center Point,78.29,165.56,70.31,136.08,371.95,Single-ply,SBD,F
Girls,82.33,7,Damaris Diaz,Mathis,80.01,145.15,79.38,147.42,371.95,Single-ply,SBD,F
Girls,82.33,8,Alina Carrera,Taft,76.84,149.69,61.23,142.88,353.8,Single-ply,SBD,F
Girls,82.33,9,Clariza Moreno,Freer,78.56,142.88,61.23,138.35,342.46,Single-ply,SBD,F
Girls,82.33,10,Lesly Juarez,Odem,75.21,149.69,58.97,131.54,340.19,Single-ply,SBD,F
Girls,82.33,DQ,Marivell Perez,Mathis,80.92,133.81,,,,Single-ply,SBD,F
Girls,82.33,DQ,Alaysha Redditt-Castro,San Antonio Brooks Academy,79.56,,,,,Single-ply,SBD,F
Girls,82.33,DQ,Leah Swinney,Cotulla,80.83,,,,,Single-ply,SBD,F
Girls,90.04,1,Harlie Guerra,Bishop,83.73,174.63,83.91,158.76,417.3,Single-ply,SBD,F
Girls,90.04,2,Amanda Vasquez,Skidmore-Tynan,86.18,167.83,79.38,158.76,405.97,Single-ply,SBD,F
Girls,90.04,3,Cheyenne Martinez,Dilley,87,176.9,68.04,151.95,396.89,Single-ply,SBD,F
Girls,90.04,4,Abby Hernandez,San Diego,89.09,172.37,70.31,154.22,396.89,Single-ply,SBD,F
Girls,90.04,5,Larissa Milleer,Kenedy,82.64,149.69,74.84,158.76,383.29,Single-ply,SBD,F
Girls,90.04,6,Olivia Monsevais,Karnes City,87.82,156.49,72.57,140.61,369.68,Single-ply,SBD,F
Girls,90.04,7,Daniela Quintero,Cotulla,86.82,154.22,77.11,133.81,365.14,Single-ply,SBD,F
Girls,90.04,8,Victoria Olivarez,Santa Rosa,87.27,149.69,61.23,151.95,362.87,Single-ply,SBD,F
Girls,90.04,9,Alexandra Hall,Edinburg Quest College Prep,88.9,138.35,81.65,138.35,358.34,Single-ply,SBD,F
Girls,90.04,10,Brianna Leal,Freer,82.64,133.81,70.31,138.35,342.46,Single-ply,SBD,F
Girls,90.04,11,Ariel Rocha,Yoakum,86.82,133.81,74.84,127.01,335.66,Single-ply,SBD,F
Girls,90.04,12,Jessica Morales,Odem,84.64,138.35,68.04,127.01,333.39,Single-ply,SBD,F
Girls,100.02,1,Argentina Garcia,La Villa,96.16,226.8,115.67,174.63,517.1,Single-ply,SBD,F
Girls,100.02,2,Jennifer Lozano,Hebbronville,98.34,217.72,104.33,172.37,494.42,Single-ply,SBD,F
Girls,100.02,3,Amberodia Aleman,Kenedy,92.8,188.24,86.18,156.49,430.91,Single-ply,SBD,F
Girls,100.02,4,Sierra Caro,Falfurrias,98.07,181.44,95.25,151.95,428.64,Single-ply,SBD,F
Girls,100.02,5,Priscilla Tovar,Lyford,92.44,167.83,77.11,172.37,417.3,Single-ply,SBD,F
Girls,100.02,6,Marissza Mendoza,Taft,90.17,151.95,68.04,142.88,362.87,Single-ply,SBD,F
Girls,100.02,7,Jackie Salazar #1,Ben Bolt-Palito Blanco,99.34,163.29,61.23,127.01,351.53,Single-ply,SBD,F
Girls,100.02,8,Emily Casillas,Center Point,96.34,142.88,70.31,136.08,349.27,Single-ply,SBD,F
Girls,100.02,9,Abigail Vela,Bishop,95.16,140.61,72.57,129.27,342.46,Single-ply,SBD,F
Girls,100.02,10,DeAnna Wood,San Antonio Brooks Academy,91.26,111.13,102.06,120.2,333.39,Single-ply,SBD,F
Girls,100.02,11,Heaven Gonzalez,Cotulla,96.16,127.01,68.04,115.67,310.71,Single-ply,SBD,F
Girls,117.71,1,Samantha Heimer,San Antonio Brooks Academy,106.32,206.38,167.83,154.22,528.44,Single-ply,SBD,F
Girls,117.71,2,Nikki Rangel,Rocksprings,101.06,183.7,86.18,174.63,444.52,Single-ply,SBD,F
Girls,117.71,3,Melanie Morales,Edinburg Idea College Prep,106.23,185.97,83.91,163.29,433.18,Single-ply,SBD,F
Girls,117.71,4,Jodi Linscomb,Freer,108.86,176.9,65.77,149.69,392.36,Single-ply,SBD,F
Girls,117.71,5,Kimberly Rivera,San Diego,114.4,154.22,52.16,154.22,360.61,Single-ply,SBD,F
Girls,117.71,6,Jovanna Guzman,Benavides,110.22,136.08,56.7,161.03,353.8,Single-ply,SBD,F
Girls,117.71,7,Charity Holland,Universal City Randolph,103.87,138.35,70.31,131.54,340.19,Single-ply,SBD,F
Girls,117.71,8,Esmeralda Rojas,Yoakum,102.87,147.42,54.43,133.81,335.66,Single-ply,SBD,F
Girls,117.71,DQ,Ebony Vega,Mathis,114.58,206.38,,,,Single-ply,SBD,F
Girls,117.71,DQ,Mykayla Stehle,Ben Bolt-Palito Blanco,102.6,154.22,,,,Single-ply,SBD,F
Girls,117.71,DQ,Jazmine Esquivel,Altair Rice,109.95,,,,,Single-ply,SBD,F
Girls,117.71+,1,Victoria Gonzalez,Cotulla,121.29,215.46,99.79,183.7,498.95,Single-ply,SBD,F
Girls,117.71+,2,Monika Morales,Edinburg Idea College Prep,118.02,215.46,104.33,145.15,464.93,Single-ply,SBD,F
Girls,117.71+,3,Aunriette Davis,Goliad,135.81,156.49,102.06,147.42,405.97,Single-ply,SBD,F
Girls,117.71+,4,Samantha Crisman,Santa Gertrudis Academy,122.2,145.15,99.79,136.08,381.02,Single-ply,SBD,F
Girls,117.71+,5,Brandy Moses,Hallettsville,118.93,142.88,72.57,149.69,365.14,Single-ply,SBD,F
Girls,117.71+,6,Bethany Gonzales,Santa Gertrudis Academy,146.87,149.69,68.04,145.15,362.87,Single-ply,SBD,F
Girls,117.71+,7,Shania Zapata,Benavides,118.84,154.22,63.5,140.61,358.34,Single-ply,SBD,F
Girls,117.71+,8,Jazz-Lynn Lewis,Refugio,123.29,142.88,56.7,158.76,358.34,Single-ply,SBD,F
Girls,117.71+,9,Sophia Arredondo,San Antonio Brooks Academy,133.63,151.95,68.04,136.08,356.07,Single-ply,SBD,F
Girls,117.71+,10,Aracely Nieto,George West,126.19,136.08,65.77,145.15,347,Single-ply,SBD,F
