Division,WeightClassKg,Place,Name,Team,BodyweightKg,Best3SquatKg,Best3BenchKg,Best3DeadliftKg,TotalKg,Equipment,Event,Sex
Boys,55.79,1,Rodney Barnes,Everman,51.89,190.51,86.18,179.17,455.86,Single-ply,SBD,M
Boys,51.71,2,Justin Lindsey,Kennedale,50.8,147.42,79.38,136.08,362.87,Single-ply,SBD,M
Boys,51.71,3,Martin Lopez,Maypearl,50.89,136.08,74.84,140.61,351.53,Single-ply,SBD,M
Boys,51.71,4,Alejandro Cosio,Fort Worth North Side,51.71,113.4,63.5,136.08,312.98,Single-ply,SBD,M
Boys,51.71,5,JaMarcus Davis,Kennedale,48.9,115.67,70.31,117.93,303.91,Single-ply,SBD,M
Boys,51.71,6,Shane Landis,Bishop Lynch,51.17,106.59,61.23,111.13,278.96,Single-ply,SBD,M
Boys,51.71,7,Sahir Alibhai,Oakridge School,47.08,86.18,58.97,99.79,244.94,Single-ply,SBD,M
Boys,59.87,1,Houston Johnson,North Crowley,55.88,131.54,52.16,138.35,322.05,Single-ply,SBD,M
Boys,55.79,2,Jacob Spradlin,Fort Worth Western Hills,55.79,111.13,47.63,102.06,260.82,Single-ply,SBD,M
Boys,55.79,3,Garrett McGuire,Cedar Hill,52.25,92.99,49.9,108.86,251.74,Single-ply,SBD,M
Boys,59.87,DQ,Kadarrin Glover,Cedar Hill,55.97,,,,,Single-ply,SBD,M
Boys,59.87,1,Ashton Williams,Everman,59.42,192.78,104.33,217.72,514.83,Single-ply,SBD,M
Boys,67.13,2,Shaifq Asmaty,Kennedale,59.96,213.19,97.52,181.44,492.15,Single-ply,SBD,M
Boys,59.87,3,Rafael Sandoval,Plano John Paul II,59.24,172.37,102.06,195.04,469.47,Single-ply,SBD,M
Boys,59.87,4,Derrick Williams,Kennedale,57.52,181.44,95.25,174.63,451.32,Single-ply,SBD,M
Boys,59.87,5,Margarito Lozano,Everman,59.33,158.76,108.86,172.37,439.98,Single-ply,SBD,M
Boys,67.13,6,Christian Nedd,Cedar Hill,59.96,161.03,90.72,176.9,428.64,Single-ply,SBD,M
Boys,59.87,7,Chris Hairston,Cedar Hill,59.65,133.81,90.72,181.44,405.97,Single-ply,SBD,M
Boys,67.13,8,Zamir Upsher,Keller Timber Creek,60.06,170.1,77.11,158.76,405.97,Single-ply,SBD,M
Boys,59.87,9,Kyle Parks,Fort Worth Western Hills,58.24,79.38,52.16,102.06,233.6,Single-ply,SBD,M
Boys,59.87,DQ,Hayden Dibble,North Crowley,59.78,174.63,,,,Single-ply,SBD,M
Boys,67.13,1,Jeffrey Gage,Keller Timber Creek,65.32,163.29,113.4,201.85,478.54,Single-ply,SBD,M
Boys,74.84,2,Brandon Jackson,Cedar Hill,67.27,181.44,115.67,179.17,476.27,Single-ply,SBD,M
Boys,67.13,3,Deontre Baker,Denison,65.68,151.95,83.91,217.72,453.59,Single-ply,SBD,M
Boys,67.13,4,Chandler Scott,Everman,64.95,188.24,92.99,170.1,451.32,Single-ply,SBD,M
Boys,67.13,5,Casin Santillo,Hurst Bell,66.32,163.29,113.4,167.83,444.52,Single-ply,SBD,M
Boys,67.13,6,Brandon Durousseaux,Everman,63.5,170.1,108.86,158.76,437.72,Single-ply,SBD,M
Boys,67.13,7,Berrick McBath,Everman,66.41,145.15,86.18,195.04,426.38,Single-ply,SBD,M
Boys,67.13,8,Sagar Patel,Oakridge School,66.5,154.22,86.18,181.44,421.84,Single-ply,SBD,M
Boys,74.84,9,Jermaine Mask,Bishop Lynch,67.31,156.49,79.38,163.29,399.16,Single-ply,SBD,M
Boys,67.13,10,Malik Barnes,Arlington Seguin,60.87,142.88,72.57,174.63,390.09,Single-ply,SBD,M
Boys,67.13,11,Mick Morrow,Midlothian,64.68,140.61,92.99,156.49,390.09,Single-ply,SBD,M
Boys,67.13,12,Daniel Onoyele,Arlington Seguin,63.14,145.15,81.65,158.76,385.55,Single-ply,SBD,M
Boys,67.13,13,Castes Creel,Midlothian,66.68,154.22,77.11,154.22,385.55,Single-ply,SBD,M
Boys,67.13,14,Nick Westenhauer,Denison,62.6,122.47,99.79,151.95,374.21,Single-ply,SBD,M
Boys,67.13,15,Khang Tran,Plano John Paul II,64.86,124.74,72.57,174.63,371.95,Single-ply,SBD,M
Boys,67.13,16,Courtland Clark,Arlington Seguin,66.95,136.08,65.77,142.88,344.73,Single-ply,SBD,M
Boys,67.13,17,Semaj Haley,Everman,65.32,113.4,61.23,136.08,310.71,Single-ply,SBD,M
Boys,67.13,18,Isaac Shepard,Arlington Seguin,66.77,111.13,72.57,111.13,294.84,Single-ply,SBD,M
Boys,67.13,19,Aaron Marinas,Arlington Seguin,61.51,113.4,65.77,108.86,288.03,Single-ply,SBD,M
Boys,67.13,20,Gabriel Lucio,Bishop Lynch,65.59,108.86,52.16,117.93,278.96,Single-ply,SBD,M
Boys,67.13,21,Sam Mitchell,Oakridge School,64.32,97.52,61.23,113.4,272.16,Single-ply,SBD,M
Boys,67.13,DQ,Dez Henderson,North Crowley,66.59,,,,,Single-ply,SBD,M
Boys,67.13,DQ,Devon Wilkerson,Fort Worth Western Hills,65.5,,,,,Single-ply,SBD,M
Boys,67.13,DQ,Sebastion Revilla,Everman,66.41,142.88,,,,Single-ply,SBD,M
Boys,74.84,1,Jarod Hill,Everman,71.67,229.06,138.35,249.48,616.89,Single-ply,SBD,M
Boys,74.84,2,Shakeel Jones,Fort Worth South Hills,73.75,226.8,133.81,229.06,589.67,Single-ply,SBD,M
Boys,74.84,3,Kenny Stafford,Everman,68.95,238.14,122.47,222.26,582.87,Single-ply,SBD,M
Boys,74.84,4,Dalton Hoelscher,Bishop Lynch,73.57,204.12,102.06,185.97,492.15,Single-ply,SBD,M
Boys,74.84,5,Benji Walzel,Dallas Highland Park,74.66,190.51,104.33,185.97,480.81,Single-ply,SBD,M
Boys,74.84,6,Mason Walker,Midlothian,74.21,174.63,108.86,188.24,471.74,Single-ply,SBD,M
Boys,74.84,7,Bryan Latigo,Fort Worth Western Hills,70.4,161.03,92.99,204.12,458.13,Single-ply,SBD,M
Boys,74.84,8,Abraham Flores,Fort Worth North Side,73.66,158.76,86.18,201.85,446.79,Single-ply,SBD,M
Boys,74.84,9,Armani Larrs,Cedar Hill,71.21,170.1,97.52,165.56,433.18,Single-ply,SBD,M
Boys,74.84,10,Logan Jordan,Fort Worth Western Hills,72.76,151.95,115.67,165.56,433.18,Single-ply,SBD,M
Boys,74.84,11,Torrie Whetsell,Cedar Hill,70.67,174.63,83.91,172.37,430.91,Single-ply,SBD,M
Boys,74.84,12,Trey Sowell,Oakridge School,71.58,154.22,88.45,181.44,424.11,Single-ply,SBD,M
Boys,74.84,13,Richie Dubose,Maypearl,70.22,136.08,95.25,190.51,421.84,Single-ply,SBD,M
Boys,74.84,14,Alex Diaz #3,Oakridge School,74.3,140.61,79.38,174.63,394.63,Single-ply,SBD,M
Boys,74.84,15,Jacob Branch,Arlington Seguin,72.3,136.08,77.11,161.03,374.21,Single-ply,SBD,M
Boys,74.84,16,Issac Fuentes,Everman,74.21,142.88,63.5,167.83,374.21,Single-ply,SBD,M
Boys,74.84,17,DeVonta Wilkerson,Fort Worth Western Hills,70.4,124.74,83.91,161.03,369.68,Single-ply,SBD,M
Boys,74.84,18,Chris Pitts,North Crowley,67.95,140.61,79.38,136.08,356.07,Single-ply,SBD,M
Boys,74.84,19,Bradley Wallzer,Denison,70.67,129.27,83.91,142.88,356.07,Single-ply,SBD,M
Boys,74.84,20,Lee Gaines,Oakridge School,72.3,115.67,58.97,163.29,337.93,Single-ply,SBD,M
Boys,74.84,21,Ty Ellard,Bishop Lynch,70.4,108.86,56.7,117.93,283.5,Single-ply,SBD,M
Boys,74.84,22,Dusty Leenhouts,Oakridge School,72.39,77.11,49.9,127.01,254.01,Single-ply,SBD,M
Boys,82.1,1,Mason Pierce,Plano John Paul II,81.37,244.94,181.44,272.16,698.53,Single-ply,SBD,M
Boys,82.1,2,Leo Brooks,Kennedale,82.1,254.01,163.29,238.14,655.44,Single-ply,SBD,M
Boys,82.1,3,Jaylon Parmes,Everman,80.74,204.12,108.86,229.06,542.04,Single-ply,SBD,M
Boys,82.1,4,Darrell Pinkston,Everman,76.02,226.8,113.4,195.04,535.24,Single-ply,SBD,M
Boys,82.1,5,Cardea Cauley,Everman,80.2,192.78,120.2,208.65,521.63,Single-ply,SBD,M
Boys,82.1,6,Sedrick Antwine,Cedar Hill,80.47,197.31,127.01,192.78,517.1,Single-ply,SBD,M
Boys,89.81,7,Moses Folefac,Arlington Seguin,82.19,170.1,97.52,217.72,485.34,Single-ply,SBD,M
Boys,82.1,8,Damarcie Perry,Cedar Hill,81.42,199.58,106.59,174.63,480.81,Single-ply,SBD,M
Boys,82.1,9,Alberto Camarillo,Fort Worth North Side,77.38,181.44,106.59,183.7,471.74,Single-ply,SBD,M
Boys,82.1,10,Khaemon Edwards,Everman,80.2,170.1,120.2,181.44,471.74,Single-ply,SBD,M
Boys,82.1,11,Derwin Townsend,Cedar Hill,78.2,165.56,95.25,181.44,442.25,Single-ply,SBD,M
Boys,82.1,12,Moises Martinez,Midlothian,80.06,158.76,106.59,165.56,430.91,Single-ply,SBD,M
Boys,82.1,13,Jared Link,Dallas Highland Park,81.65,158.76,88.45,165.56,412.77,Single-ply,SBD,M
Boys,82.1,14,Austin Schaffer,Oakridge School,80.1,138.35,79.38,183.7,401.43,Single-ply,SBD,M
Boys,82.1,15,Josh Thompson,Arlington Seguin,76.75,136.08,70.31,142.88,349.27,Single-ply,SBD,M
Boys,82.1,16,Andrew White,Oakridge School,78.38,120.2,72.57,140.61,333.39,Single-ply,SBD,M
Boys,82.1,17,Vincente Labarba,Bishop Lynch,81.01,90.72,61.23,102.06,254.01,Single-ply,SBD,M
Boys,82.1,DQ,Bennett Brock,Dallas Highland Park,80.1,142.88,,,,Single-ply,SBD,M
Boys,82.1,DQ,Toryon Evans,Arlington Seguin,79.11,,,,,Single-ply,SBD,M
Boys,89.81,1,Jesus Padilla,Fort Worth North Side,83.1,206.38,161.03,231.33,598.74,Single-ply,SBD,M
Boys,89.81,2,Najee Mustafaa,Midlothian,89.54,229.06,136.08,226.8,591.94,Single-ply,SBD,M
Boys,89.81,3,Hayden Schnieder,Dallas Highland Park,88.63,229.06,124.74,231.33,585.13,Single-ply,SBD,M
Boys,89.81,4,Vincent Ajaegbu,North Crowley,87.82,217.72,124.74,233.6,576.06,Single-ply,SBD,M
Boys,89.81,5,Chase Coleman,North Crowley,89.72,190.51,120.2,233.6,544.31,Single-ply,SBD,M
Boys,89.81,6,Andrew Lee,North Crowley,85.73,213.19,136.08,190.51,539.77,Single-ply,SBD,M
Boys,99.79,7,Mason Ruzicka,Cedar Hill,89.9,204.12,120.2,204.12,528.44,Single-ply,SBD,M
Boys,89.81,8,Daniel Ambriz,Everman,87.54,208.65,120.2,197.31,526.17,Single-ply,SBD,M
Boys,89.81,9,Ryan Steinkirchner,Plano John Paul II,88.09,183.7,127.01,199.58,510.29,Single-ply,SBD,M
Boys,99.79,10,Tyler Gibson,Midlothian,89.99,165.56,111.13,181.44,458.13,Single-ply,SBD,M
Boys,89.81,11,Robin Agir,Oakridge School,87.36,174.63,83.91,190.51,449.06,Single-ply,SBD,M
Boys,89.81,12,Carlton Dickson,Maypearl,83.82,154.22,104.33,167.83,426.38,Single-ply,SBD,M
Boys,89.81,13,Luis Pilot,Arlington Seguin,83.55,117.93,79.38,147.42,344.73,Single-ply,SBD,M
Boys,89.81,14,Nick Tran,Oakridge School,86.45,136.08,58.97,149.69,344.73,Single-ply,SBD,M
Boys,89.81,15,David Anderson #3,Plano John Paul II,85.91,106.59,79.38,127.01,312.98,Single-ply,SBD,M
Boys,89.81,16,Jack Arnold,Dallas Highland Park,86.18,102.06,68.04,122.47,292.57,Single-ply,SBD,M
Boys,89.81,DQ,Bowen Kirkbride,Denison,87.63,242.67,142.88,,,Single-ply,SBD,M
Boys,89.81,DQ,Kenneth Robinson,Fort Worth Western Hills,89.27,,,,,Single-ply,SBD,M
Boys,89.81,DQ,Hunter Powell,Keller Timber Creek,88,183.7,,,,Single-ply,SBD,M
Boys,89.81,DQ,Shonne Smith,Arlington Seguin,83.19,190.51,,,,Single-ply,SBD,M
Boys,89.81,DQ,Jeff Hill,Arlington Seguin,88.81,195.04,,,,Single-ply,SBD,M
Boys,99.79,1,Chase Wingo,Midlothian,96.25,244.94,151.95,244.94,641.83,Single-ply,SBD,M
Boys,99.79,2,Christian Hernandez,Everman,98.61,249.48,142.88,231.33,623.69,Single-ply,SBD,M
Boys,99.79,3,Hugo Giron,Kennedale,96.07,238.14,149.69,219.99,607.81,Single-ply,SBD,M
Boys,99.79,4,Jamie Wood #2,Denison,97.98,229.06,156.49,217.72,603.28,Single-ply,SBD,M
Boys,99.79,5,Ian Masakini,Keller Timber Creek,95.25,238.14,138.35,217.72,594.21,Single-ply,SBD,M
Boys,99.79,6,Jonathan Casillas,Keller Timber Creek,92.26,192.78,111.13,229.06,532.97,Single-ply,SBD,M
Boys,99.79,7,Riley Hyslop,Plano John Paul II,94.17,170.1,122.47,226.8,519.36,Single-ply,SBD,M
Boys,99.79,8,William Neely,Dallas Highland Park,96.52,188.24,108.86,170.1,467.2,Single-ply,SBD,M
Boys,99.79,9,Jonathan Bates,Plano John Paul II,97.52,158.76,95.25,204.12,458.13,Single-ply,SBD,M
Boys,99.79,10,Lee Longino,Dallas Highland Park,96.89,170.1,90.72,158.76,419.57,Single-ply,SBD,M
Boys,99.79,11,Justin Wheeler,Arlington Seguin,90.63,158.76,95.25,163.29,417.3,Single-ply,SBD,M
Boys,99.79,12,Tyler Ruby,Bishop Lynch,99.52,136.08,81.65,165.56,383.29,Single-ply,SBD,M
Boys,99.79,13,Carlos Zamora,Fort Worth Western Hills,95.62,136.08,88.45,142.88,367.41,Single-ply,SBD,M
Boys,99.79,14,Terrance Randle,Arlington Seguin,91.08,147.42,70.31,124.74,342.46,Single-ply,SBD,M
Boys,109.77,1,Sergio Orona,Denison,104.42,249.48,161.03,240.4,650.91,Single-ply,SBD,M
Boys,124.74,2,Xavier Washington,Cedar Hill,109.91,240.4,149.69,231.33,621.42,Single-ply,SBD,M
Boys,109.77,3,Chase Dennis,Keller Timber Creek,105.96,263.08,142.88,213.19,619.15,Single-ply,SBD,M
Boys,124.74,4,John Molina,Bishop Lynch,109.86,238.14,147.42,206.38,591.94,Single-ply,SBD,M
Boys,109.77,5,Javier Alva,Fort Worth North Side,104.14,238.14,115.67,215.46,569.26,Single-ply,SBD,M
Boys,109.77,6,Zane Miller,Midlothian,108.68,199.58,145.15,197.31,542.04,Single-ply,SBD,M
Boys,109.77,7,Matthew Naugle,Kennedale,105.69,222.26,124.74,192.78,539.77,Single-ply,SBD,M
Boys,109.77,8,Josh Brown #3,North Crowley,101.88,208.65,115.67,195.04,519.36,Single-ply,SBD,M
Boys,109.77,9,Sean Partridge,Fort Worth Western Hills,109.77,199.58,106.59,197.31,503.49,Single-ply,SBD,M
Boys,109.77,10,Thomas O'Toole-Halverson,Plano John Paul II,107.14,176.9,113.4,181.44,471.74,Single-ply,SBD,M
Boys,109.77,11,Jake Sorrels,Dallas Highland Park,105.23,145.15,92.99,136.08,374.21,Single-ply,SBD,M
Boys,109.77,12,Terry Harjo,Arlington Seguin,109.5,142.88,81.65,149.69,374.21,Single-ply,SBD,M
Boys,109.77,DQ,Logan O'Neil,Dallas Highland Park,107.5,,,,,Single-ply,SBD,M
Boys,109.77,DQ,Bailey Reid,Denison,106.32,190.51,,,,Single-ply,SBD,M
Boys,109.77,DQ,Tony Davila,Everman,108.68,210.92,129.27,,,Single-ply,SBD,M
Boys,109.77,DQ,Woody Thompson,Maypearl,101.15,124.74,,,,Single-ply,SBD,M
Boys,124.74,1,Justin Bigelow,Denison,120.38,340.19,219.99,272.16,832.34,Single-ply,SBD,M
Boys,124.74,2,Brent Reed,Kennedale,123.83,260.82,136.08,249.48,646.37,Single-ply,SBD,M
Boys,124.74,3,Nate Ward,Kennedale,122.83,269.89,163.29,208.65,641.83,Single-ply,SBD,M
Boys,124.74,4,Eric Booker,Everman,122.38,226.8,136.08,199.58,562.45,Single-ply,SBD,M
Boys,124.74,5,Clay Stahl,Plano John Paul II,113.13,204.12,104.33,201.85,510.29,Single-ply,SBD,M
Boys,124.74,6,Asante Slater,Everman,124.28,188.24,124.74,195.04,508.02,Single-ply,SBD,M
Boys,124.74,7,Dylan Burns,Everman,114.03,192.78,124.74,142.88,460.4,Single-ply,SBD,M
Boys,124.74,8,Andrew Kelley,Bishop Lynch,119.11,170.1,113.4,170.1,453.59,Single-ply,SBD,M
Boys,124.74,9,George Roam,Everman,113.67,156.49,104.33,181.44,442.25,Single-ply,SBD,M
Boys,124.74+,1,Nate Brown,Kennedale,158.21,319.78,185.97,274.42,780.18,Single-ply,SBD,M
Boys,124.74+,2,Cliffton Coffey,Cedar Hill,132,226.8,145.15,238.14,610.08,Single-ply,SBD,M
Boys,124.74+,3,Terik Rabb,Kennedale,130,240.4,142.88,217.72,601.01,Single-ply,SBD,M
Boys,124.74+,4,Rowdy Witt,Everman,133.17,226.8,133.81,204.12,564.72,Single-ply,SBD,M
Boys,124.74+,5,Austin Webb,Dallas Highland Park,133.72,204.12,111.13,181.44,496.68,Single-ply,SBD,M
