Division,WeightClassKg,Place,Name,Team,BodyweightKg,Best3SquatKg,Best3BenchKg,Best3DeadliftKg,TotalKg,Equipment,Event,Sex
Boys,51.71,1,Rodney Barnes,Everman,51.35,199.58,95.25,174.63,469.47,Single-ply,SBD,M
Boys,51.71,2,Nate Lunsford,Frisco Wakeland,50.44,142.88,79.38,151.95,374.21,Single-ply,SBD,M
Boys,51.71,3,Ricky Lopez,Frisco Centennial,50.35,142.88,79.38,149.69,371.95,Single-ply,SBD,M
Boys,51.71,4,Dakota Hutson,Azle,51.26,131.54,77.11,138.35,347,Single-ply,SBD,M
Boys,55.79,5,Tyler Lacy,South Garland,51.89,113.4,56.7,142.88,312.98,Single-ply,SBD,M
Boys,51.71,6,Kaden Herbert,Weatherford,51.44,120.2,65.77,124.74,310.71,Single-ply,SBD,M
Boys,51.71,7,Arlind Queriman,Aledo,50.89,124.74,58.97,124.74,308.44,Single-ply,SBD,M
Boys,51.71,8,Mainglee Bou,Fort Worth Paschal,47.99,115.67,52.16,129.27,297.1,Single-ply,SBD,M
Boys,55.79,9,Jabril Clayborne,North Crowley,51.8,104.33,56.7,136.08,297.1,Single-ply,SBD,M
Boys,51.71,10,Darian Butler,Denison,49.17,108.86,56.7,124.74,290.3,Single-ply,SBD,M
Boys,55.79,1,Carlos Reynoso,McKinney Boyd,54.98,174.63,95.25,179.17,449.06,Single-ply,SBD,M
Boys,59.87,2,Jordan Estell,North Mesquite,55.97,158.76,86.18,195.04,439.98,Single-ply,SBD,M
Boys,55.79,3,Logan Police,Frisco Wakeland,55.25,167.83,92.99,170.1,430.91,Single-ply,SBD,M
Boys,59.87,4,Arnold Delgadillo,White Settlement Brewer,55.97,145.15,97.52,172.37,415.04,Single-ply,SBD,M
Boys,55.79,5,Alejandro Cosio,Fort Worth North Side,55.79,138.35,74.84,176.9,390.09,Single-ply,SBD,M
Boys,55.79,6,Daylon Jackson,Everman,55.61,151.95,65.77,170.1,387.82,Single-ply,SBD,M
Boys,55.79,7,Felipe Hernández #5,Saginaw,54.34,127.01,77.11,145.15,349.27,Single-ply,SBD,M
Boys,55.79,8,Carrol Gavin,Frisco Wakeland,55.7,136.08,70.31,131.54,337.93,Single-ply,SBD,M
Boys,55.79,9,Arrington Holiday,Crowley,55.7,131.54,72.57,124.74,328.85,Single-ply,SBD,M
Boys,55.79,NS,Aaron May,Mesquite Poteet,,,,,,Single-ply,SBD,M
Boys,59.87,1,Gerald Van Ess,McKinney North,59.69,195.04,115.67,197.31,508.02,Single-ply,SBD,M
Boys,59.87,2,Armani Donaldson,Wichita Falls,58.79,197.31,117.93,183.7,498.95,Single-ply,SBD,M
Boys,59.87,3,Chris Hairston,Cedar Hill,59.69,170.1,104.33,208.65,483.08,Single-ply,SBD,M
Boys,67.13,4,Deiontay Cornelius,Little Elm,60.06,183.7,81.65,181.44,446.79,Single-ply,SBD,M
Boys,59.87,5,Christian Nedd,Cedar Hill,59.69,156.49,90.72,197.31,444.52,Single-ply,SBD,M
Boys,59.87,6,Justin Acosta,Frisco Lone Star,57.97,181.44,88.45,158.76,428.64,Single-ply,SBD,M
Boys,67.13,7,Daniel Rodriguez #12,Fort Worth Paschal,59.96,170.1,70.31,181.44,421.84,Single-ply,SBD,M
Boys,59.87,8,Wilson Kirkbride,Denison,59.24,161.03,86.18,170.1,417.3,Single-ply,SBD,M
Boys,59.87,9,Dalton McWilliams,Lewisville Marcus,59.78,154.22,113.4,147.42,415.04,Single-ply,SBD,M
Boys,59.87,10,Baldemar Carbajal,Sherman,57.79,145.15,90.72,158.76,394.63,Single-ply,SBD,M
Boys,74.84,1,Kenny Stafford,Everman,67.31,258.55,113.4,233.6,605.55,Single-ply,SBD,M
Boys,74.84,2,Brandon Jackson,Cedar Hill,67.22,208.65,120.2,199.58,528.44,Single-ply,SBD,M
Boys,67.13,3,Casin Santillo,Hurst Bell,67.04,195.04,136.08,192.78,523.9,Single-ply,SBD,M
Boys,67.13,4,Jake Ratcliff,Denison,66.22,204.12,99.79,192.78,496.68,Single-ply,SBD,M
Boys,67.13,5,Hayden Dibble,North Crowley,65.59,197.31,90.72,188.24,476.27,Single-ply,SBD,M
Boys,67.13,6,Tre Adger,Sherman,64.23,188.24,97.52,176.9,462.66,Single-ply,SBD,M
Boys,67.13,7,Andrew Wilson,Frisco Wakeland,66.04,176.9,99.79,176.9,453.59,Single-ply,SBD,M
Boys,67.13,NS,Michael Jordan,Aledo,,,,,,Single-ply,SBD,M
Boys,67.13,NS,Darius Sockwell,Cedar Hill,,,,,,Single-ply,SBD,M
Boys,67.13,DQ,A'Daireon Madlock,North Mesquite,66.32,,,,,Single-ply,SBD,M
Boys,67.13,DQ,Deontre Baker,Denison,66.59,,,,,Single-ply,SBD,M
Boys,74.84,1,Jarod Hill,Everman,70.85,260.82,149.69,294.84,705.34,Single-ply,SBD,M
Boys,74.84,2,Dominique McBride,North Mesquite,72.94,222.26,106.59,240.4,569.26,Single-ply,SBD,M
Boys,74.84,3,Jeffrey Gage,Keller Timber Creek,71.76,192.78,136.08,226.8,555.65,Single-ply,SBD,M
Boys,82.1,4,Cardea Cauley,Everman,75.02,208.65,129.27,204.12,542.04,Single-ply,SBD,M
Boys,74.84,5,Dajuan Webb,Mansfield Summit,73.03,195.04,117.93,226.8,539.77,Single-ply,SBD,M
Boys,74.84,6,Hennon Cooper,Cedar Hill,74.12,190.51,115.67,208.65,514.83,Single-ply,SBD,M
Boys,74.84,7,Chase Smith,Azle,73.39,181.44,104.33,197.31,483.08,Single-ply,SBD,M
Boys,74.84,8,Isaiah Washington,Everman,73.66,181.44,95.25,204.12,480.81,Single-ply,SBD,M
Boys,74.84,DQ,George Kennard,Frisco Wakeland,71.76,208.65,,,,Single-ply,SBD,M
Boys,74.84,DQ,Tres Cox,Northwest Nelson,72.67,,,,,Single-ply,SBD,M
Boys,89.81,1,Josh Scott,Rockwall-Heath,82.19,244.94,149.69,240.4,635.03,Single-ply,SBD,M
Boys,82.1,2,Anthony Pegues,Frisco Centennial,81.01,238.14,140.61,251.74,630.49,Single-ply,SBD,M
Boys,82.1,3,Quentin Wooten,Rockwall-Heath,80.38,226.8,138.35,258.55,623.69,Single-ply,SBD,M
Boys,82.1,4,Darrell Pinkston,Everman,79.92,272.16,142.88,204.12,619.15,Single-ply,SBD,M
Boys,89.81,5,Jaylon Parmes,Everman,82.28,235.87,127.01,249.48,612.35,Single-ply,SBD,M
Boys,82.1,6,Sedrick Antwine,Cedar Hill,81.83,233.6,133.81,222.26,589.67,Single-ply,SBD,M
Boys,82.1,7,Devon Blanton,Denison,81.1,217.72,117.93,249.48,585.13,Single-ply,SBD,M
Boys,82.1,8,Elijah Moore,Cedar Hill,81.56,201.85,145.15,226.8,573.79,Single-ply,SBD,M
Boys,82.1,9,Robert Carper,Weatherford,80.38,213.19,127.01,217.72,557.92,Single-ply,SBD,M
Boys,82.1,10,Gage McQuade,Fort Worth Boswell,77.66,226.8,127.01,199.58,553.38,Single-ply,SBD,M
Boys,82.1,NS,James Worthy,Everman,,,,,,Single-ply,SBD,M
Boys,89.81,1,Tim Hutchins,Cedar Hill,88.09,247.21,142.88,247.21,637.3,Single-ply,SBD,M
Boys,99.79,2,Vincent Ajagebu,North Crowley,89.99,242.67,138.35,244.94,625.96,Single-ply,SBD,M
Boys,89.81,3,Stacy Sublett,North Mesquite,85.64,238.14,113.4,251.74,603.28,Single-ply,SBD,M
Boys,89.81,4,Charles Ijioma,Little Elm,87.82,226.8,138.35,226.8,591.94,Single-ply,SBD,M
Boys,99.79,5,Chase Coleman,North Crowley,89.99,226.8,124.74,231.33,582.87,Single-ply,SBD,M
Boys,89.81,6,Khaemon Edwards,Everman,84.91,204.12,142.88,226.8,573.79,Single-ply,SBD,M
Boys,89.81,7,Michael Coleman #6,Mansfield Timberview,88.45,222.26,129.27,222.26,573.79,Single-ply,SBD,M
Boys,89.81,DQ,Bowen Kirkbride,Denison,87.27,258.55,149.69,,,Single-ply,SBD,M
Boys,89.81,DQ,Jordan Simpson,Carrollton Creekview,87.18,204.12,,,,Single-ply,SBD,M
Boys,89.81,DQ,Daniel Ramos,Mansfield Timberview,89.45,,,,,Single-ply,SBD,M
Boys,99.79,1,Tyrell Jeffries,Denison,95.25,265.35,176.9,301.64,743.89,Single-ply,SBD,M
Boys,99.79,2,Keith Ngondo,Little Elm,97.61,292.57,136.08,265.35,694,Single-ply,SBD,M
Boys,99.79,3,Cole Stewart,Aledo,94.8,249.48,156.49,251.74,657.71,Single-ply,SBD,M
Boys,99.79,4,Valentine Odidi,Mansfield Timberview,98.07,251.74,151.95,244.94,648.64,Single-ply,SBD,M
Boys,99.79,5,Nico Rodriguez,Dallas Jesuit,99.16,240.4,161.03,240.4,641.83,Single-ply,SBD,M
Boys,99.79,6,Trevor Goree,Keller Timber Creek,99.52,272.16,147.42,208.65,628.23,Single-ply,SBD,M
Boys,99.79,7,Ian Masikini,Keller Timber Creek,92.44,240.4,149.69,226.8,616.89,Single-ply,SBD,M
Boys,99.79,8,Josh Brown #3,North Crowley,96.71,251.74,124.74,217.72,594.21,Single-ply,SBD,M
Boys,99.79,9,Dylan Branson,Little Elm,95.35,249.48,133.81,204.12,587.4,Single-ply,SBD,M
Boys,99.79,DQ,D Falana,Cedar Hill,98.34,240.4,131.54,,,Single-ply,SBD,M
Boys,99.79,DQ,Corban James,Fort Worth Arlington Heights,99.61,,,,,Single-ply,SBD,M
Boys,109.77,1,Landon Hallmark,Little Elm,109.68,285.76,145.15,267.62,698.53,Single-ply,SBD,M
Boys,109.77,2,Chase Dennis,Keller Timber Creek,107.68,274.42,158.76,233.6,666.78,Single-ply,SBD,M
Boys,109.77,3,Justin Scarbro,Azle,108.95,263.08,176.9,226.8,666.78,Single-ply,SBD,M
Boys,109.77,4,Javier Alva,Fort Worth North Side,105.14,265.35,140.61,242.67,648.64,Single-ply,SBD,M
Boys,109.77,5,Guillermo Parham,Wichita Falls Rider,104.96,263.08,172.37,197.31,632.76,Single-ply,SBD,M
Boys,109.77,6,Christopher Reyes,Fort Worth Paschal,107.5,233.6,156.49,204.12,594.21,Single-ply,SBD,M
Boys,109.77,7,Tristian Raymond,Weatherford,107.41,226.8,154.22,210.92,591.94,Single-ply,SBD,M
Boys,109.77,8,Marshall Parks,Keller Central,104.42,215.46,145.15,226.8,587.4,Single-ply,SBD,M
Boys,109.77,NS,Gage Rieter,Frisco Liberty,,,,,,Single-ply,SBD,M
Boys,109.77,DQ,Quinton Washington,Lewisville Marcus,105.51,213.19,,,,Single-ply,SBD,M
Boys,109.77,DQ,Drew Smith,Azle,106.5,,,,,Single-ply,SBD,M
Boys,124.74,1,Dominic Hill #2,Fort Worth Boswell,121.83,317.51,192.78,278.96,789.25,Single-ply,SBD,M
Boys,124.74,2,Camren Thompson,Frisco Wakeland,123.56,308.44,140.61,249.48,698.53,Single-ply,SBD,M
Boys,124.74,3,Myles Adams,Mansfield Summit,118.21,224.53,138.35,278.96,641.83,Single-ply,SBD,M
Boys,124.74,4,Justin Self,Northwest Nelson,120.84,272.16,136.08,231.33,639.57,Single-ply,SBD,M
Boys,124.74,5,Skylyr Rodriquez,Keller,121.2,249.48,161.03,222.26,632.76,Single-ply,SBD,M
Boys,124.74,6,Zachary Perry,Fort Worth Arlington Heights,120.02,244.94,140.61,222.26,607.81,Single-ply,SBD,M
Boys,124.74,7,Jake Allsbrooks,Fort Worth Boswell,123.01,254.01,122.47,192.78,569.26,Single-ply,SBD,M
Boys,124.74,8,Justin Watson #1,Fort Worth Boswell,120.11,233.6,136.08,195.04,564.72,Single-ply,SBD,M
Boys,124.74,DQ,Nick Wood,Lewisville Marcus,120.93,,,,,Single-ply,SBD,M
Boys,124.74,DQ,Alec Jamar,Frisco Liberty,121.2,,,,,Single-ply,SBD,M
Boys,124.74,DQ,Bailey Reid,Denison,110.04,,,,,Single-ply,SBD,M
Boys,124.74+,1,Clifton Coffey,Cedar Hill,154.04,294.84,172.37,260.82,728.02,Single-ply,SBD,M
Boys,124.74+,2,Randy Crystian,Cedar Hill,132.36,238.14,165.56,263.08,666.78,Single-ply,SBD,M
Boys,124.74+,3,Jorge Guerrero,Rockwall-Heath,154.22,272.16,163.29,231.33,666.78,Single-ply,SBD,M
Boys,124.74+,4,Collin Partridge,Wichita Falls Rider,137.98,290.3,142.88,229.06,662.24,Single-ply,SBD,M
Boys,124.74+,5,Joey Stephens,Everman,140.7,233.6,181.44,229.06,644.1,Single-ply,SBD,M
Boys,124.74+,6,Suraj Dhillon,Fort Worth Paschal,129.55,260.82,147.42,219.99,628.23,Single-ply,SBD,M
Boys,124.74+,7,Alex Boyer,Frisco Liberty,129.46,238.14,154.22,219.99,612.35,Single-ply,SBD,M
Boys,124.74+,8,Seth Miller,Carrollton Creekview,145.33,256.28,129.27,226.8,612.35,Single-ply,SBD,M
Boys,124.74+,9,Zach Thomas,McKinney North,142.25,254.01,145.15,204.12,603.28,Single-ply,SBD,M
Boys,124.74+,DQ,Jacob Lance,Azle,151.77,272.16,147.42,,,Single-ply,SBD,M
