Division,WeightClassKg,Place,Name,Team,BodyweightKg,Best3SquatKg,Best3BenchKg,Best3DeadliftKg,TotalKg,Equipment,Event,Sex,BirthDate
Boys,51.71,1,Tyler Morrow,Copperas Cove,50.62,127.01,83.91,163.29,374.21,Single-ply,SBD,M,
Boys,51.71,2,Carlos Bolivar,Cameron Yoe,46.81,102.06,70.31,127.01,299.37,Single-ply,SBD,M,
Boys,51.71,3,Zander Henderson,Troy,49.44,120.2,63.5,115.67,299.37,Single-ply,SBD,M,
Boys,51.71,4,Isaac Jones,Belton,50.62,113.4,72.57,108.86,294.84,Single-ply,SBD,M,
Boys,51.71,5,Colin Gascon,Belton,43.82,77.11,45.36,88.45,210.92,Single-ply,SBD,M,
Boys,51.71,6,Marco Castelli,Belton,45.81,70.31,45.36,90.72,206.38,Single-ply,SBD,M,
Boys,51.71,7,Nick Perez,Belton,45.27,77.11,36.29,90.72,204.12,Single-ply,SBD,M,
Boys,55.79,1,Brady Bearden,Troy,55.52,163.29,97.52,167.83,428.64,Single-ply,SBD,M,
Boys,55.79,2,Junior Cox,Belton,55.7,151.95,102.06,172.37,426.38,Single-ply,SBD,M,
Boys,55.79,3,Richard Willess,Belton,55.47,147.42,95.25,158.76,401.43,Single-ply,SBD,M,
Boys,55.79,4,Adrian Fairley,Copperas Cove,54.34,79.38,70.31,83.91,233.6,Single-ply,SBD,M,
Boys,55.79,DQ,Dominic Sisneros,Waco University,55.52,120.2,,,,Single-ply,SBD,M,
Boys,59.87,1,Kyle Gascon,Belton,59.69,174.63,90.72,167.83,433.18,Single-ply,SBD,M,
Boys,59.87,2,Angel Longoria #2,Belton,59.06,138.35,83.91,154.22,376.48,Single-ply,SBD,M,
Boys,59.87,3,Caleb Dawkins,Waco,55.97,102.06,70.31,106.59,278.96,Single-ply,SBD,M,
Boys,59.87,4,Shane Christiansen,Troy,57.06,77.11,47.63,99.79,224.53,Single-ply,SBD,M,
Boys,59.87,DQ,Jesse Pierce,Troy,57.42,74.84,,,,Single-ply,SBD,M,
Boys,67.13,1,Gerald Fountain,Belton,66.32,147.42,102.06,188.24,437.72,Single-ply,SBD,M,
Boys,67.13,2,Dakota Schramm,Gatesville,62.32,149.69,86.18,138.35,374.21,Single-ply,SBD,M,
Boys,67.13,3,Sean Galvan,Belton,65.32,129.27,90.72,147.42,367.41,Single-ply,SBD,M,
Boys,67.13,4,Landon Marsh,Georgetown,63.96,127.01,79.38,124.74,331.12,Single-ply,SBD,M,
Boys,67.13,5,Tyler Lawson,Georgetown,61.14,106.59,72.57,145.15,324.32,Single-ply,SBD,M,
Boys,67.13,DQ,Juan Emanuel,Killeen Harker Heights,64.23,151.95,,,,Single-ply,SBD,M,
Boys,74.84,1,Scott Gurnett,Belton,74.48,197.31,124.74,190.51,512.56,Single-ply,SBD,M,
Boys,74.84,2,Fabian Solomon,Cameron Yoe,70.76,197.31,111.13,199.58,508.02,Single-ply,SBD,M,
Boys,74.84,3,Tyrese Francis,Copperas Cove,71.4,188.24,102.06,183.7,474,Single-ply,SBD,M,
Boys,74.84,4,Austin Morin,Belton,74.57,190.51,115.67,161.03,467.2,Single-ply,SBD,M,
Boys,74.84,5,Samari Howard,Temple,74.84,165.56,111.13,190.51,467.2,Single-ply,SBD,M,
Boys,74.84,6,Thomas McVade,Temple,69.76,158.76,108.86,192.78,460.4,Single-ply,SBD,M,
Boys,74.84,7,Tyree Trammell,Killeen Harker Heights,70.67,163.29,106.59,176.9,446.79,Single-ply,SBD,M,
Boys,74.84,8,Triston Cohorn,Temple,74.75,163.29,106.59,172.37,442.25,Single-ply,SBD,M,
Boys,74.84,9,Chandler Gastelo,Copperas Cove,71.76,170.1,95.25,165.56,430.91,Single-ply,SBD,M,
Boys,74.84,10,Tarin Morrow,Copperas Cove,72.48,163.29,90.72,174.63,428.64,Single-ply,SBD,M,
Boys,74.84,11,Riley Tabat,Belton,70.31,174.63,102.06,149.69,426.38,Single-ply,SBD,M,
Boys,74.84,12,Tavaris Sullivan,Temple,73.75,158.76,83.91,181.44,424.11,Single-ply,SBD,M,
Boys,74.84,13,Blake Kanz,Waco Midway,69.31,142.88,74.84,158.76,376.48,Single-ply,SBD,M,
Boys,74.84,14,Noah Campbell,Belton,74.48,142.88,79.38,149.69,371.95,Single-ply,SBD,M,
Boys,74.84,15,Cody Fishbourne,Temple,69.4,136.08,79.38,124.74,340.19,Single-ply,SBD,M,
Boys,74.84,16,Kaleb Hill,Temple,68.13,120.2,86.18,127.01,333.39,Single-ply,SBD,M,
Boys,74.84,17,Hudson Tuma,Georgetown,73.94,124.74,81.65,122.47,328.85,Single-ply,SBD,M,
Boys,74.84,18,Luke Bodkins,Cameron Yoe,68.04,115.67,72.57,136.08,324.32,Single-ply,SBD,M,
Boys,74.84,19,Diago Pena,Troy,69.4,104.33,54.43,131.54,290.3,Single-ply,SBD,M,
Boys,74.84,DQ,Darryl Thomas #2,Waco University,71.03,124.74,,,,Single-ply,SBD,M,
Boys,74.84,DQ,Kevon Britt,Waco University,74.48,165.56,,,,Single-ply,SBD,M,
Boys,74.84,DQ,Xavier Benavidez,Waco University,72.3,99.79,,,,Single-ply,SBD,M,
Boys,74.84,DQ,Vinny Blount,Troy,72.85,,,,,Single-ply,SBD,M,
Boys,82.1,1,Tyler Burt,Cameron Yoe,79.83,213.19,140.61,215.46,569.26,Single-ply,SBD,M,
Boys,82.1,2,Tim Apodaca,Belton,81.28,217.72,129.27,206.38,553.38,Single-ply,SBD,M,
Boys,82.1,3,Brandon Ortega,Copperas Cove,82.01,206.38,120.2,210.92,537.51,Single-ply,SBD,M,
Boys,82.1,4,Keith Guillory,Waco,78.29,183.7,133.81,192.78,510.29,Single-ply,SBD,M,
Boys,82.1,5,Jace Carr,Troy,81.47,192.78,113.4,181.44,487.61,Single-ply,SBD,M,
Boys,82.1,6,Colton Kirk,Waco Midway,78.56,158.76,115.67,170.1,444.52,Single-ply,SBD,M,
Boys,82.1,7,Jaxon Waters,Georgetown,81.37,165.56,92.99,165.56,424.11,Single-ply,SBD,M,
Boys,82.1,8,Rodney Rodgers,Waco Midway,79.56,145.15,102.06,172.37,419.57,Single-ply,SBD,M,
Boys,82.1,9,Julian Estrada,Waco,75.21,145.15,111.13,156.49,412.77,Single-ply,SBD,M,
Boys,82.1,10,Landon Gilstrap,Troy,76.11,151.95,79.38,149.69,381.02,Single-ply,SBD,M,
Boys,82.1,11,Javin Salinas,Waco,75.84,124.74,90.72,149.69,365.14,Single-ply,SBD,M,
Boys,82.1,DQ,Ryan Saxton,Belton,78.2,156.49,97.52,,,Single-ply,SBD,M,
Boys,89.81,1,Jonah Myers,Belton,89.81,201.85,129.27,195.04,526.17,Single-ply,SBD,M,
Boys,89.81,2,Hunter Berry,Copperas Cove,89.81,158.76,111.13,231.33,501.22,Single-ply,SBD,M,
Boys,89.81,3,Dhamir McDonnaugh,Waco Midway,84.82,165.56,104.33,181.44,451.32,Single-ply,SBD,M,
Boys,89.81,4,Marvin Aviles,Copperas Cove,82.92,154.22,97.52,151.95,403.7,Single-ply,SBD,M,
Boys,89.81,5,Darren Paul,Waco,88.36,136.08,102.06,149.69,387.82,Single-ply,SBD,M,
Boys,89.81,6,Isaiah Thomas,Temple,87.63,106.59,79.38,117.93,303.91,Single-ply,SBD,M,
Boys,99.79,1,Dai'Shawn Fisher,Waco,99.79,244.94,129.27,244.94,619.15,Single-ply,SBD,M,
Boys,99.79,2,Eduardo Gil,Cameron Yoe,99.52,226.8,161.03,229.06,616.89,Single-ply,SBD,M,
Boys,99.79,3,McKenneth Davis,Copperas Cove,95.53,183.7,145.15,213.19,542.04,Single-ply,SBD,M,
Boys,99.79,4,Brian Burton,Waco Midway,95.8,192.78,129.27,204.12,526.17,Single-ply,SBD,M,
Boys,99.79,5,Trenton Nix,Cameron Yoe,90.72,185.97,122.47,165.56,474,Single-ply,SBD,M,
Boys,99.79,6,KyJuan Otis,Killeen Harker Heights,93.89,183.7,108.86,181.44,474,Single-ply,SBD,M,
Boys,99.79,7,Caleb Newberry,Copperas Cove,91.72,174.63,104.33,163.29,442.25,Single-ply,SBD,M,
Boys,99.79,8,Aimeer Washington,Killeen Harker Heights,92.44,163.29,90.72,181.44,435.45,Single-ply,SBD,M,
Boys,99.79,9,Tyrese Hale,Copperas Cove,99.52,142.88,102.06,136.08,381.02,Single-ply,SBD,M,
Boys,99.79,10,Caleb Freizel,Troy,95.53,111.13,58.97,120.2,290.3,Single-ply,SBD,M,
Boys,99.79,DQ,Miguel Medrano,Waco University,96.98,140.61,,,,Single-ply,SBD,M,
Boys,109.77,1,Zach Hoyle,Copperas Cove,109.77,226.8,183.7,249.48,659.98,Single-ply,SBD,M,
Boys,109.77,2,Dominic Lewis,Cameron Yoe,109.5,231.33,131.54,242.67,605.55,Single-ply,SBD,M,
Boys,109.77,3,Jacob Sinkwich,Belton,109.18,240.4,151.95,208.65,601.01,Single-ply,SBD,M,
Boys,109.77,4,Malachi Robinson,Killeen Harker Heights,101.88,197.31,113.4,222.26,532.97,Single-ply,SBD,M,
Boys,109.77,5,Jasper James,Belton,109.77,210.92,142.88,174.63,528.44,Single-ply,SBD,M,
Boys,109.77,6,Frankquan Sauls,Temple,102.87,165.56,106.59,142.88,415.04,Single-ply,SBD,M,
Boys,109.77,7,Evan Lovejoy,Waco Midway,106.5,136.08,68.04,136.08,340.19,Single-ply,SBD,M,
Boys,109.77,DQ,Jacob Bryant,Waco University,105.51,206.38,,,,Single-ply,SBD,M,
Boys,124.74,1,Bryan Luna,Belton,123.92,283.5,176.9,226.8,687.19,Single-ply,SBD,M,
Boys,124.74,2,Josh Jett,Georgetown,122.74,235.87,138.35,210.92,585.13,Single-ply,SBD,M,
Boys,124.74,3,Jaylin Rawls,Killeen Harker Heights,116.21,208.65,136.08,226.8,571.53,Single-ply,SBD,M,
Boys,124.74,4,Zach Montgomery,Waco Midway,121.56,226.8,124.74,215.46,566.99,Single-ply,SBD,M,
Boys,124.74,5,Jeremy Carter,Copperas Cove,122.56,195.04,131.54,188.24,514.83,Single-ply,SBD,M,
Boys,124.74,6,Korbyn Peaslee,Waco Midway,117.48,204.12,102.06,204.12,510.29,Single-ply,SBD,M,
Boys,124.74,7,Trenton Freeman,Waco,112.85,192.78,108.86,183.7,485.34,Single-ply,SBD,M,
Boys,124.74,8,Challen Maileoi,Belton,121.47,197.31,115.67,170.1,483.08,Single-ply,SBD,M,
Boys,124.74,9,Ashton Salas,Waco Midway,121.93,192.78,117.93,165.56,476.27,Single-ply,SBD,M,
Boys,124.74,10,William McCloud,Gatesville,117.48,172.37,104.33,165.56,442.25,Single-ply,SBD,M,
Boys,124.74,11,Colby Arney,Cameron Yoe,122.83,161.03,97.52,174.63,433.18,Single-ply,SBD,M,
Boys,124.74,11,Joseph Labay,Waco Midway,123.56,136.08,95.25,147.42,378.75,Single-ply,SBD,M,
Boys,124.74,12,Steven Delamora,Troy,118.39,170.1,79.38,163.29,412.77,Single-ply,SBD,M,
Boys,124.74,13,Jayden De La Cruz,Temple,112.4,133.81,120.2,149.69,403.7,Single-ply,SBD,M,
Boys,124.74,14,Erik Estrada,Waco Midway,112.85,149.69,108.86,136.08,394.63,Single-ply,SBD,M,
Boys,124.74+,1,Kyle Strmiska,Gatesville,131.45,249.48,183.7,204.12,637.3,Single-ply,SBD,M,
Boys,124.74+,2,Noe Ibarra,Georgetown,158.76,278.96,154.22,188.24,621.42,Single-ply,SBD,M,
Boys,124.74+,3,Joseph Kiraly,Waco,148.32,226.8,142.88,195.04,564.72,Single-ply,SBD,M,
Boys,124.74+,4,Thomas Holman,Copperas Cove,139.07,217.72,140.61,204.12,562.45,Single-ply,SBD,M,
Boys,124.74+,5,Dan Llanez,Copperas Cove,153.5,204.12,113.4,226.8,544.31,Single-ply,SBD,M,
Boys,124.74+,6,Miguel Convento,Waco Midway,158.3,208.65,127.01,195.04,530.7,Single-ply,SBD,M,
Boys,124.74+,7,Ryan Conner,Copperas Cove,143.43,185.97,138.35,183.7,508.02,Single-ply,SBD,M,
Boys,124.74+,8,Xamier Latchison,Waco,135.71,181.44,136.08,181.44,498.95,Single-ply,SBD,M,
Boys,124.74+,9,Peyton Reed,Copperas Cove,133.08,170.1,104.33,172.37,446.79,Single-ply,SBD,M,
Boys,124.74+,10,Gage Miller,Troy,144.33,165.56,113.4,161.03,439.98,Single-ply,SBD,M,
